test/programs/cpu_waveforms.vcd
$date
	Fri Jun 27 23:48:47 2025
$end
$version
	Icarus Verilog
$end
$timescale
	1ps
$end
$scope module tb_sigmacore_top $end
$var wire 32 ! pc_out_tb [31:0] $end
$var wire 32 " instruction_out_tb [31:0] $end
$var parameter 32 # CLOCK_PERIOD $end
$var reg 1 $ clk_tb $end
$var reg 1 % reset_n_tb $end
$scope module dut $end
$var wire 1 $ clk $end
$var wire 1 % reset_n $end
$var wire 1 & reg_write $end
$var wire 1 ' reg_b_write $end
$var wire 1 ( reg_a_write $end
$var wire 1 ) pc_write $end
$var wire 2 * pc_source [1:0] $end
$var wire 7 + opcode_from_datapath [6:0] $end
$var wire 1 , mem_write $end
$var wire 1 - mem_to_reg $end
$var wire 1 . mem_read $end
$var wire 1 / ir_write $end
$var wire 3 0 imm_src [2:0] $end
$var wire 32 1 final_pc_out [31:0] $end
$var wire 32 2 final_instruction_out [31:0] $end
$var wire 2 3 alu_src_b [1:0] $end
$var wire 1 4 alu_src_a $end
$var wire 1 5 alu_out_write $end
$var wire 2 6 alu_op_type [1:0] $end
$scope module datapath $end
$var wire 1 $ clk $end
$var wire 32 7 current_pc_out [31:0] $end
$var wire 32 8 instruction_out [31:0] $end
$var wire 1 9 mem_read $end
$var wire 1 % reset_n $end
$var wire 32 : sign_extended_imm [31:0] $end
$var wire 32 ; reg_write_data [31:0] $end
$var wire 1 & reg_write $end
$var wire 32 < reg_file_read_data2 [31:0] $end
$var wire 32 = reg_file_read_data1 [31:0] $end
$var wire 1 ' reg_b_write $end
$var wire 1 ( reg_a_write $end
$var wire 1 ) pc_write $end
$var wire 2 > pc_source [1:0] $end
$var wire 1 , mem_write $end
$var wire 1 - mem_to_reg $end
$var wire 32 ? mem_read_data [31:0] $end
$var wire 1 / ir_write $end
$var wire 32 @ instruction_from_imem [31:0] $end
$var wire 3 A imm_src [2:0] $end
$var wire 1 B alu_zero_flag $end
$var wire 2 C alu_src_b [1:0] $end
$var wire 1 4 alu_src_a $end
$var wire 32 D alu_result [31:0] $end
$var wire 1 5 alu_out_write $end
$var wire 2 E alu_op_type [1:0] $end
$var wire 4 F alu_op [3:0] $end
$var wire 32 G alu_input_a [31:0] $end
$var reg 32 H alu_input_b [31:0] $end
$var reg 32 I alu_result_register [31:0] $end
$var reg 32 J instruction_register [31:0] $end
$var reg 32 K mem_data_register [31:0] $end
$var reg 32 L pc_current [31:0] $end
$var reg 32 M pc_next [31:0] $end
$var reg 32 N reg_a [31:0] $end
$var reg 32 O reg_b [31:0] $end
$scope module alu_ctrl $end
$var wire 3 P funct3_in [2:0] $end
$var wire 7 Q funct7_in [6:0] $end
$var wire 2 R alu_op_type_in [1:0] $end
$var reg 4 S alu_op_out [3:0] $end
$upscope $end
$scope module dmem $end
$var wire 32 T addr_in [31:0] $end
$var wire 1 $ clk $end
$var wire 32 U write_data_in [31:0] $end
$var wire 1 , write_enable $end
$var wire 10 V word_addr [9:0] $end
$var parameter 32 W ADDR_WIDTH $end
$var parameter 32 X MEM_SIZE_WORDS $end
$var reg 32 Y read_data_out [31:0] $end
$var reg 1 Z read_enable $end
$upscope $end
$scope module imem $end
$var wire 1 $ clk $end
$var wire 32 [ read_addr_in [31:0] $end
$var parameter 32 \ ADDR_WIDTH $end
$var parameter 32 ] MEM_SIZE_WORDS $end
$var reg 32 ^ instruction_out [31:0] $end
$scope begin $ivl_for_loop0 $end
$var integer 32 _ i [31:0] $end
$upscope $end
$upscope $end
$scope module main_alu $end
$var wire 4 ` alu_op [3:0] $end
$var wire 32 a operand1 [31:0] $end
$var wire 32 b operand2 [31:0] $end
$var wire 1 B zero_flag $end
$var wire 1 c negative_flag $end
$var reg 1 d carry_flag $end
$var reg 33 e ext_sum_sub [32:0] $end
$var reg 1 f overflow_flag $end
$var reg 32 g result [31:0] $end
$scope begin $unm_blk_29 $end
$var reg 5 h shift_temp [4:0] $end
$upscope $end
$upscope $end
$scope module reg_file $end
$var wire 1 $ clk $end
$var wire 5 i read_addr1 [4:0] $end
$var wire 5 j read_addr2 [4:0] $end
$var wire 1 % reset_n $end
$var wire 5 k write_addr [4:0] $end
$var wire 32 l write_data [31:0] $end
$var wire 1 & write_enable $end
$var wire 32 m read_data2 [31:0] $end
$var wire 32 n read_data1 [31:0] $end
$scope begin $ivl_for_loop1 $end
$var integer 32 o i [31:0] $end
$upscope $end
$upscope $end
$scope module sign_ext $end
$var wire 32 p imm_extended_out [31:0] $end
$var wire 32 q instruction_in [31:0] $end
$var wire 3 r imm_type_in [2:0] $end
$var reg 32 s imm_temp [31:0] $end
$upscope $end
$upscope $end
$scope module fsm_ctrl $end
$var wire 1 $ clk $end
$var wire 7 t opcode [6:0] $end
$var wire 1 % reset_n $end
$var reg 2 u alu_op_type [1:0] $end
$var reg 1 5 alu_out_write $end
$var reg 1 4 alu_src_a $end
$var reg 2 v alu_src_b [1:0] $end
$var reg 4 w current_state [3:0] $end
$var reg 3 x imm_src [2:0] $end
$var reg 1 / ir_write $end
$var reg 1 . mem_read $end
$var reg 1 - mem_to_reg $end
$var reg 1 , mem_write $end
$var reg 4 y next_state [3:0] $end
$var reg 2 z pc_source [1:0] $end
$var reg 1 ) pc_write $end
$var reg 1 ( reg_a_write $end
$var reg 1 ' reg_b_write $end
$var reg 1 & reg_write $end
$upscope $end
$upscope $end
$upscope $end
$enddefinitions $end
$comment Show the parameter values. $end
$dumpall
b10000 ]
b100 \
b10000000000 X
b1010 W
b1010 #
$end
#0
$dumpvars
b0 z
b1 y
b0 x
b0 w
b10 v
b1 u
bx t
b0 s
b0 r
bx q
b0 p
b0 o
bx n
bx m
bx l
bx k
bx j
bx i
bx h
b100 g
0f
b100 e
0d
0c
b100 b
b0 a
b0 `
b10000 _
bx ^
b0 [
xZ
bx Y
bx V
bx U
bx T
b0 S
b1 R
bx Q
bx P
bx O
bx N
b100 M
b0 L
bx K
bx J
bx I
b100 H
b0 G
b0 F
b1 E
b100 D
b10 C
0B
b0 A
bx @
bx ?
b0 >
bx =
bx <
bx ;
b0 :
x9
bx 8
b0 7
b1 6
05
14
b10 3
bx 2
b0 1
b0 0
1/
1.
0-
0,
bx +
b0 *
1)
0(
0'
0&
0%
0$
bx "
b0 !
$end
#5000
b100 ;
b100 l
b1 V
b11001010111111101111001010110111 @
b11001010111111101111001010110111 ^
b100 I
b100 T
b100000 o
1$
#10000
0$
#15000
b0 =
b0 n
b0 <
b0 m
b1 y
b11101 i
b1111 j
b101 k
b111 P
b1100101 Q
b110111 +
b110111 t
b11001010111111101111001010110111 "
b11001010111111101111001010110111 2
b11001010111111101111001010110111 8
b11001010111111101111001010110111 J
b11001010111111101111001010110111 q
b100000 o
1$
#20000
0$
#25000
b100000 o
1$
#30000
0$
#35000
b100000 o
1$
#40000
0$
#45000
b100000 o
1%
1$
#50000
0$
#55000
xc
xd
bx M
bx H
bx b
bx e
xB
bx D
bx g
15
1'
1(
b0 6
b0 E
b0 R
b0 u
b0 3
b0 C
b0 v
04
0.
0/
0)
b111 y
bx G
bx a
b1 w
b100 !
b100 1
b100 7
b100 L
b100 [
1$
#60000
0$
#65000
0c
b0 M
b0 e
0d
1B
b0 D
b0 g
b0 H
b0 b
b0 G
b0 a
bx ;
bx l
bx V
1&
05
0'
0(
b0 y
b10000000000101000001100010011 @
b10000000000101000001100010011 ^
b0 O
b0 U
b0 N
bx I
bx T
b111 w
1$
#70000
0$
#75000
b1000 M
0B
b1000 D
b1000 g
b1000 e
b100 G
b100 a
b100 H
b100 b
b0 ;
b0 l
b0 V
b1 6
b1 E
b1 R
b1 u
b10 3
b10 C
b10 v
14
1)
1/
1.
0&
b1 y
b0 I
b0 T
b0 w
1$
#80000
0$
#85000
b0 M
b0 e
bx =
bx n
1B
b0 D
b0 g
b0 H
b0 b
b101 i
b0 j
b110 k
b0 P
b1000 Q
b10011 +
b10011 t
b1000 ;
b1000 l
b10 V
b0 G
b0 a
15
1'
1(
b0 6
b0 E
b0 R
b0 u
b0 3
b0 C
b0 v
04
0.
0/
0)
b110 y
b10000000000101000001100010011 "
b10000000000101000001100010011 2
b10000000000101000001100010011 8
b10000000000101000001100010011 J
b10000000000101000001100010011 q
b1000 I
b1000 T
b1000 !
b1000 1
b1000 7
b1000 L
b1000 [
b1 w
1$
#90000
0$
#95000
xc
bx M
b100000000 H
b100000000 b
xd
xB
bx D
bx g
bx e
b100000000 :
b100000000 p
b100000000 s
b0 ;
b0 l
b0 V
bx G
bx a
b1 0
b1 A
b1 r
b1 x
b1 3
b1 C
b1 v
15
0'
0(
b111 y
b0 I
b0 T
bx N
b11000101000001110110011 @
b11000101000001110110011 ^
b110 w
1$
#100000
0$
#105000
xd
xB
bx D
bx g
b0 :
b0 p
b0 s
b0 H
b0 b
bx ;
bx l
bx V
1&
05
b0 0
b0 A
b0 r
b0 x
b0 3
b0 C
b0 v
b0 y
bx I
bx T
b111 w
1$
#110000
0$
#115000
0c
b1100 M
b1100 e
0d
0B
b1100 D
b1100 g
b1000 G
b1000 a
b100 H
b100 b
b1 6
b1 E
b1 R
b1 u
b10 3
b10 C
b10 v
14
1)
1/
1.
0&
b1 y
b0 w
1$
#120000
0$
#125000
xc
bx M
xd
bx e
bx <
bx m
xB
bx D
bx g
b0 H
b0 b
b110 j
b111 k
b0 Q
b110011 +
b110011 t
b1100 ;
b1100 l
b11 V
bx G
bx a
15
1'
1(
b0 6
b0 E
b0 R
b0 u
b0 3
b0 C
b0 v
04
0.
0/
0)
b100 y
b11000101000001110110011 "
b11000101000001110110011 2
b11000101000001110110011 8
b11000101000001110110011 J
b11000101000001110110011 q
b1100 I
b1100 T
b1100 !
b1100 1
b1100 7
b1100 L
b1100 [
b1 w
1$
#130000
0$
#135000
xd
xB
bx D
bx g
bx ;
bx l
bx V
bx H
bx b
15
0'
0(
b101 y
bx I
bx T
bx O
bx U
b11100101010011000100011 @
b11100101010011000100011 ^
b100 w
1$
#140000
0$
#145000
1&
05
b0 y
b101 w
1$
#150000
0$
#155000
0c
b10000 M
b10000 e
0d
0B
b10000 D
b10000 g
b1100 G
b1100 a
b100 H
b100 b
b1 6
b1 E
b1 R
b1 u
b10 3
b10 C
b10 v
14
1)
1/
1.
0&
b1 y
b0 w
1$
#160000
0$
#165000
xc
bx M
xd
bx e
xB
bx D
bx g
bx H
bx b
b111 j
b1100 k
b10 P
b100011 +
b100011 t
b10000 ;
b10000 l
b100 V
bx G
bx a
15
1'
1(
b0 6
b0 E
b0 R
b0 u
b0 3
b0 C
b0 v
04
0.
0/
0)
b10 y
b11100101010011000100011 "
b11100101010011000100011 2
b11100101010011000100011 8
b11100101010011000100011 J
b11100101010011000100011 q
b10000 I
b10000 T
b10000 !
b10000 1
b10000 7
b10000 L
b10000 [
b1 w
1$
#170000
0$
#175000
xd
xB
bx D
bx g
b1100 :
b1100 p
b1100 s
b1100 H
b1100 b
bx ;
bx l
bx V
b1 6
b1 E
b1 R
b1 u
b10 0
b10 A
b10 r
b10 x
b1 3
b1 C
b1 v
15
0'
0(
b11 y
bx I
bx T
b11001010111111101111001010110111 @
b11001010111111101111001010110111 ^
b10 w
1$
#180000
0$
#185000
xd
xB
bx D
bx g
b0 :
b0 p
b0 s
bx H
bx b
1,
05
b0 6
b0 E
b0 R
b0 u
b0 0
b0 A
b0 r
b0 x
b0 3
b0 C
b0 v
b0 y
b11 w
1$
#190000
0$
#195000
0c
b10100 M
b10100 e
0d
0B
b10100 D
b10100 g
b10000 G
b10000 a
b100 H
b100 b
b1 6
b1 E
b1 R
b1 u
b10 3
b10 C
b10 v
14
1)
1/
1.
0,
b1 y
b0 w
1$
#200000
0$
#205000
xc
bx M
b0 =
b0 n
b0 <
b0 m
xd
bx e
xB
bx D
bx g
bx H
bx b
b11101 i
b1111 j
b101 k
b111 P
b1100101 Q
b110111 +
b110111 t
b10100 ;
b10100 l
b101 V
bx G
bx a
15
1'
1(
b0 6
b0 E
b0 R
b0 u
b0 3
b0 C
b0 v
04
0.
0/
0)
b111 y
b11001010111111101111001010110111 "
b11001010111111101111001010110111 2
b11001010111111101111001010110111 8
b11001010111111101111001010110111 J
b11001010111111101111001010110111 q
b10100 I
b10100 T
b10100 !
b10100 1
b10100 7
b10100 L
b10100 [
b1 w
1$
#210000
0$
#215000
0c
b0 M
b0 e
0d
1B
b0 D
b0 g
bx ;
bx l
bx V
b0 H
b0 b
b0 G
b0 a
1&
05
0'
0(
b0 y
bx I
bx T
b0 O
b0 U
b0 N
b10000000000101000001100010011 @
b10000000000101000001100010011 ^
b111 w
1$
#220000
0$
#225000
b11000 M
0B
b11000 D
b11000 g
b11000 e
b10100 G
b10100 a
b100 H
b100 b
b0 ;
b0 l
b0 V
b1 6
b1 E
b1 R
b1 u
b10 3
b10 C
b10 v
14
1)
1/
1.
0&
b1 y
b0 I
b0 T
b0 w
1$
#230000
0$
#235000
b0 M
bx =
bx n
b0 H
b0 b
b0 e
1B
b0 D
b0 g
b11000 ;
b11000 l
b110 V
b101 i
b0 j
b110 k
b0 P
b1000 Q
b10011 +
b10011 t
15
1'
1(
b0 6
b0 E
b0 R
b0 u
b0 3
b0 C
b0 v
04
0.
0/
0)
b110 y
b0 G
b0 a
b11000 I
b11000 T
b10000000000101000001100010011 "
b10000000000101000001100010011 2
b10000000000101000001100010011 8
b10000000000101000001100010011 J
b10000000000101000001100010011 q
b1 w
b11000 !
b11000 1
b11000 7
b11000 L
b11000 [
1$
#240000
0$
#245000
xc
bx M
b100000000 H
b100000000 b
xd
xB
bx D
bx g
bx e
b100000000 :
b100000000 p
b100000000 s
bx G
bx a
b0 ;
b0 l
b0 V
b1 0
b1 A
b1 r
b1 x
b1 3
b1 C
b1 v
15
0'
0(
b111 y
b11000101000001110110011 @
b11000101000001110110011 ^
bx N
b0 I
b0 T
b110 w
1$
#250000
0$
#255000
xd
xB
bx D
bx g
b0 :
b0 p
b0 s
b0 H
b0 b
bx ;
bx l
bx V
1&
05
b0 0
b0 A
b0 r
b0 x
b0 3
b0 C
b0 v
b0 y
bx I
bx T
b111 w
1$
#260000
0$
#265000
0c
b11100 M
b11100 e
0d
0B
b11100 D
b11100 g
b11000 G
b11000 a
b100 H
b100 b
b1 6
b1 E
b1 R
b1 u
b10 3
b10 C
b10 v
14
1)
1/
1.
0&
b1 y
b0 w
1$
#270000
0$
#275000
xc
xd
bx M
bx <
bx m
b0 H
b0 b
bx e
xB
bx D
bx g
b11100 ;
b11100 l
b111 V
b110 j
b111 k
b0 Q
b110011 +
b110011 t
15
1'
1(
b0 6
b0 E
b0 R
b0 u
b0 3
b0 C
b0 v
04
0.
0/
0)
b100 y
bx G
bx a
b11100 I
b11100 T
b11000101000001110110011 "
b11000101000001110110011 2
b11000101000001110110011 8
b11000101000001110110011 J
b11000101000001110110011 q
b1 w
b11100 !
b11100 1
b11100 7
b11100 L
b11100 [
1$
#280000
0$
#285000
xd
xB
bx D
bx g
bx H
bx b
bx ;
bx l
bx V
15
0'
0(
b101 y
b11100101010011000100011 @
b11100101010011000100011 ^
bx O
bx U
bx I
bx T
b100 w
1$
#290000
0$
#295000
1&
05
b0 y
b101 w
1$
#300000
0$
#305000
0c
b100000 M
b100000 e
0d
0B
b100000 D
b100000 g
b11100 G
b11100 a
b100 H
b100 b
b1 6
b1 E
b1 R
b1 u
b10 3
b10 C
b10 v
14
1)
1/
1.
0&
b1 y
b0 w
1$
#310000
0$
#315000
xc
xd
bx M
bx H
bx b
bx e
xB
bx D
bx g
b100000 ;
b100000 l
b1000 V
b111 j
b1100 k
b10 P
b100011 +
b100011 t
15
1'
1(
b0 6
b0 E
b0 R
b0 u
b0 3
b0 C
b0 v
04
0.
0/
0)
b10 y
bx G
bx a
b100000 I
b100000 T
b11100101010011000100011 "
b11100101010011000100011 2
b11100101010011000100011 8
b11100101010011000100011 J
b11100101010011000100011 q
b1 w
b100000 !
b100000 1
b100000 7
b100000 L
b100000 [
1$
#320000
0$
#325000
xd
xB
bx D
bx g
b1100 :
b1100 p
b1100 s
b1100 H
b1100 b
bx ;
bx l
bx V
b1 6
b1 E
b1 R
b1 u
b10 0
b10 A
b10 r
b10 x
b1 3
b1 C
b1 v
15
0'
0(
b11 y
b11001010111111101111001010110111 @
b11001010111111101111001010110111 ^
bx I
bx T
b10 w
1$
#330000
0$
#335000
xd
xB
bx D
bx g
b0 :
b0 p
b0 s
bx H
bx b
1,
05
b0 6
b0 E
b0 R
b0 u
b0 0
b0 A
b0 r
b0 x
b0 3
b0 C
b0 v
b0 y
b11 w
1$
#340000
0$
#345000
0c
b100100 M
b100100 e
0d
0B
b100100 D
b100100 g
b100000 G
b100000 a
b100 H
b100 b
b1 6
b1 E
b1 R
b1 u
b10 3
b10 C
b10 v
14
1)
1/
1.
0,
b1 y
b0 w
1$
#350000
0$
#355000
xc
xd
bx M
b0 =
b0 n
b0 <
b0 m
bx H
bx b
bx e
xB
bx D
bx g
b100100 ;
b100100 l
b1001 V
b11101 i
b1111 j
b101 k
b111 P
b1100101 Q
b110111 +
b110111 t
15
1'
1(
b0 6
b0 E
b0 R
b0 u
b0 3
b0 C
b0 v
04
0.
0/
0)
b111 y
bx G
bx a
b100100 I
b100100 T
b11001010111111101111001010110111 "
b11001010111111101111001010110111 2
b11001010111111101111001010110111 8
b11001010111111101111001010110111 J
b11001010111111101111001010110111 q
b1 w
b100100 !
b100100 1
b100100 7
b100100 L
b100100 [
1$
#360000
0$
#365000
0c
b0 M
b0 e
0d
1B
b0 D
b0 g
b0 H
b0 b
b0 G
b0 a
bx ;
bx l
bx V
1&
05
0'
0(
b0 y
b10000000000101000001100010011 @
b10000000000101000001100010011 ^
b0 O
b0 U
b0 N
bx I
bx T
b111 w
1$
#370000
0$
#375000
b101000 M
0B
b101000 D
b101000 g
b101000 e
b100100 G
b100100 a
b100 H
b100 b
b0 ;
b0 l
b0 V
b1 6
b1 E
b1 R
b1 u
b10 3
b10 C
b10 v
14
1)
1/
1.
0&
b1 y
b0 I
b0 T
b0 w
1$
#380000
0$
#385000
b0 M
b0 e
bx =
bx n
1B
b0 D
b0 g
b0 H
b0 b
b101 i
b0 j
b110 k
b0 P
b1000 Q
b10011 +
b10011 t
b101000 ;
b101000 l
b1010 V
b0 G
b0 a
15
1'
1(
b0 6
b0 E
b0 R
b0 u
b0 3
b0 C
b0 v
04
0.
0/
0)
b110 y
b10000000000101000001100010011 "
b10000000000101000001100010011 2
b10000000000101000001100010011 8
b10000000000101000001100010011 J
b10000000000101000001100010011 q
b101000 I
b101000 T
b101000 !
b101000 1
b101000 7
b101000 L
b101000 [
b1 w
1$
#390000
0$
#395000
xc
bx M
b100000000 H
b100000000 b
xd
xB
bx D
bx g
bx e
b100000000 :
b100000000 p
b100000000 s
b0 ;
b0 l
b0 V
bx G
bx a
b1 0
b1 A
b1 r
b1 x
b1 3
b1 C
b1 v
15
0'
0(
b111 y
b0 I
b0 T
bx N
b11000101000001110110011 @
b11000101000001110110011 ^
b110 w
1$
#400000
0$
#405000
xd
xB
bx D
bx g
b0 :
b0 p
b0 s
b0 H
b0 b
bx ;
bx l
bx V
1&
05
b0 0
b0 A
b0 r
b0 x
b0 3
b0 C
b0 v
b0 y
bx I
bx T
b111 w
1$
#410000
0$
#415000
0c
b101100 M
b101100 e
0d
0B
b101100 D
b101100 g
b101000 G
b101000 a
b100 H
b100 b
b1 6
b1 E
b1 R
b1 u
b10 3
b10 C
b10 v
14
1)
1/
1.
0&
b1 y
b0 w
1$
#420000
0$
#425000
xc
bx M
xd
bx e
bx <
bx m
xB
bx D
bx g
b0 H
b0 b
b110 j
b111 k
b0 Q
b110011 +
b110011 t
b101100 ;
b101100 l
b1011 V
bx G
bx a
15
1'
1(
b0 6
b0 E
b0 R
b0 u
b0 3
b0 C
b0 v
04
0.
0/
0)
b100 y
b11000101000001110110011 "
b11000101000001110110011 2
b11000101000001110110011 8
b11000101000001110110011 J
b11000101000001110110011 q
b101100 I
b101100 T
b101100 !
b101100 1
b101100 7
b101100 L
b101100 [
b1 w
1$
#430000
0$
#435000
xd
xB
bx D
bx g
bx ;
bx l
bx V
bx H
bx b
15
0'
0(
b101 y
bx I
bx T
bx O
bx U
b11100101010011000100011 @
b11100101010011000100011 ^
b100 w
1$
#440000
0$
#445000
1&
05
b0 y
b101 w
1$
#450000
0$
#455000
0c
b110000 M
b110000 e
0d
0B
b110000 D
b110000 g
b101100 G
b101100 a
b100 H
b100 b
b1 6
b1 E
b1 R
b1 u
b10 3
b10 C
b10 v
14
1)
1/
1.
0&
b1 y
b0 w
1$
#460000
0$
#465000
xc
bx M
xd
bx e
xB
bx D
bx g
bx H
bx b
b111 j
b1100 k
b10 P
b100011 +
b100011 t
b110000 ;
b110000 l
b1100 V
bx G
bx a
15
1'
1(
b0 6
b0 E
b0 R
b0 u
b0 3
b0 C
b0 v
04
0.
0/
0)
b10 y
b11100101010011000100011 "
b11100101010011000100011 2
b11100101010011000100011 8
b11100101010011000100011 J
b11100101010011000100011 q
b110000 I
b110000 T
b110000 !
b110000 1
b110000 7
b110000 L
b110000 [
b1 w
1$
#470000
0$
#475000
xd
xB
bx D
bx g
b1100 :
b1100 p
b1100 s
b1100 H
b1100 b
bx ;
bx l
bx V
b1 6
b1 E
b1 R
b1 u
b10 0
b10 A
b10 r
b10 x
b1 3
b1 C
b1 v
15
0'
0(
b11 y
bx I
bx T
b11001010111111101111001010110111 @
b11001010111111101111001010110111 ^
b10 w
1$
#480000
0$
#485000
xd
xB
bx D
bx g
b0 :
b0 p
b0 s
bx H
bx b
1,
05
b0 6
b0 E
b0 R
b0 u
b0 0
b0 A
b0 r
b0 x
b0 3
b0 C
b0 v
b0 y
b11 w
1$
#490000
0$
#495000
0c
b110100 M
b110100 e
0d
0B
b110100 D
b110100 g
b110000 G
b110000 a
b100 H
b100 b
b1 6
b1 E
b1 R
b1 u
b10 3
b10 C
b10 v
14
1)
1/
1.
0,
b1 y
b0 w
1$
#500000
0$
#505000
xc
bx M
b0 =
b0 n
b0 <
b0 m
xd
bx e
xB
bx D
bx g
bx H
bx b
b11101 i
b1111 j
b101 k
b111 P
b1100101 Q
b110111 +
b110111 t
b110100 ;
b110100 l
b1101 V
bx G
bx a
15
1'
1(
b0 6
b0 E
b0 R
b0 u
b0 3
b0 C
b0 v
04
0.
0/
0)
b111 y
b11001010111111101111001010110111 "
b11001010111111101111001010110111 2
b11001010111111101111001010110111 8
b11001010111111101111001010110111 J
b11001010111111101111001010110111 q
b110100 I
b110100 T
b110100 !
b110100 1
b110100 7
b110100 L
b110100 [
b1 w
1$
#510000
0$
#515000
0c
b0 M
b0 e
0d
1B
b0 D
b0 g
bx ;
bx l
bx V
b0 H
b0 b
b0 G
b0 a
1&
05
0'
0(
b0 y
bx I
bx T
b0 O
b0 U
b0 N
b10000000000101000001100010011 @
b10000000000101000001100010011 ^
b111 w
1$
#520000
0$
#525000
b111000 M
0B
b111000 D
b111000 g
b111000 e
b110100 G
b110100 a
b100 H
b100 b
b0 ;
b0 l
b0 V
b1 6
b1 E
b1 R
b1 u
b10 3
b10 C
b10 v
14
1)
1/
1.
0&
b1 y
b0 I
b0 T
b0 w
1$
#530000
0$
#535000
b0 M
bx =
bx n
b0 H
b0 b
b0 e
1B
b0 D
b0 g
b111000 ;
b111000 l
b1110 V
b101 i
b0 j
b110 k
b0 P
b1000 Q
b10011 +
b10011 t
15
1'
1(
b0 6
b0 E
b0 R
b0 u
b0 3
b0 C
b0 v
04
0.
0/
0)
b110 y
b0 G
b0 a
b111000 I
b111000 T
b10000000000101000001100010011 "
b10000000000101000001100010011 2
b10000000000101000001100010011 8
b10000000000101000001100010011 J
b10000000000101000001100010011 q
b1 w
b111000 !
b111000 1
b111000 7
b111000 L
b111000 [
1$
#540000
0$
#545000
xc
bx M
b100000000 H
b100000000 b
xd
xB
bx D
bx g
bx e
b100000000 :
b100000000 p
b100000000 s
bx G
bx a
b0 ;
b0 l
b0 V
b1 0
b1 A
b1 r
b1 x
b1 3
b1 C
b1 v
15
0'
0(
b111 y
b11000101000001110110011 @
b11000101000001110110011 ^
bx N
b0 I
b0 T
b110 w
1$
#550000
0$
#555000
xd
xB
bx D
bx g
b0 :
b0 p
b0 s
b0 H
b0 b
bx ;
bx l
bx V
1&
05
b0 0
b0 A
b0 r
b0 x
b0 3
b0 C
b0 v
b0 y
bx I
bx T
b111 w
1$
#560000
0$
#565000
0c
b111100 M
b111100 e
0d
0B
b111100 D
b111100 g
b111000 G
b111000 a
b100 H
b100 b
b1 6
b1 E
b1 R
b1 u
b10 3
b10 C
b10 v
14
1)
1/
1.
0&
b1 y
b0 w
1$
#570000
0$
#575000
xc
xd
bx M
bx <
bx m
b0 H
b0 b
bx e
xB
bx D
bx g
b111100 ;
b111100 l
b1111 V
b110 j
b111 k
b0 Q
b110011 +
b110011 t
15
1'
1(
b0 6
b0 E
b0 R
b0 u
b0 3
b0 C
b0 v
04
0.
0/
0)
b100 y
bx G
bx a
b111100 I
b111100 T
b11000101000001110110011 "
b11000101000001110110011 2
b11000101000001110110011 8
b11000101000001110110011 J
b11000101000001110110011 q
b1 w
b111100 !
b111100 1
b111100 7
b111100 L
b111100 [
1$
#580000
0$
#585000
xd
xB
bx D
bx g
bx H
bx b
bx ;
bx l
bx V
15
0'
0(
b101 y
b11100101010011000100011 @
b11100101010011000100011 ^
bx O
bx U
bx I
bx T
b100 w
1$
#590000
0$
#595000
1&
05
b0 y
b101 w
1$
#600000
0$
#605000
0c
b1000000 M
b1000000 e
0d
0B
b1000000 D
b1000000 g
b111100 G
b111100 a
b100 H
b100 b
b1 6
b1 E
b1 R
b1 u
b10 3
b10 C
b10 v
14
1)
1/
1.
0&
b1 y
b0 w
1$
#610000
0$
#615000
xc
xd
bx M
bx H
bx b
bx e
xB
bx D
bx g
b1000000 ;
b1000000 l
b10000 V
b111 j
b1100 k
b10 P
b100011 +
b100011 t
15
1'
1(
b0 6
b0 E
b0 R
b0 u
b0 3
b0 C
b0 v
04
0.
0/
0)
b10 y
bx G
bx a
b1000000 I
b1000000 T
b11100101010011000100011 "
b11100101010011000100011 2
b11100101010011000100011 8
b11100101010011000100011 J
b11100101010011000100011 q
b1 w
b1000000 !
b1000000 1
b1000000 7
b1000000 L
b1000000 [
1$
#620000
0$
#625000
xd
xB
bx D
bx g
b1100 :
b1100 p
b1100 s
b1100 H
b1100 b
bx ;
bx l
bx V
b1 6
b1 E
b1 R
b1 u
b10 0
b10 A
b10 r
b10 x
b1 3
b1 C
b1 v
15
0'
0(
b11 y
b11001010111111101111001010110111 @
b11001010111111101111001010110111 ^
bx I
bx T
b10 w
1$
#630000
0$
#635000
xd
xB
bx D
bx g
b0 :
b0 p
b0 s
bx H
bx b
1,
05
b0 6
b0 E
b0 R
b0 u
b0 0
b0 A
b0 r
b0 x
b0 3
b0 C
b0 v
b0 y
b11 w
1$
#640000
0$
#645000
0c
b1000100 M
b1000100 e
0d
0B
b1000100 D
b1000100 g
b1000000 G
b1000000 a
b100 H
b100 b
b1 6
b1 E
b1 R
b1 u
b10 3
b10 C
b10 v
14
1)
1/
1.
0,
b1 y
b0 w
1$
#650000
0$
#655000
xc
xd
bx M
b0 =
b0 n
b0 <
b0 m
bx H
bx b
bx e
xB
bx D
bx g
b1000100 ;
b1000100 l
b10001 V
b11101 i
b1111 j
b101 k
b111 P
b1100101 Q
b110111 +
b110111 t
15
1'
1(
b0 6
b0 E
b0 R
b0 u
b0 3
b0 C
b0 v
04
0.
0/
0)
b111 y
bx G
bx a
b1000100 I
b1000100 T
b11001010111111101111001010110111 "
b11001010111111101111001010110111 2
b11001010111111101111001010110111 8
b11001010111111101111001010110111 J
b11001010111111101111001010110111 q
b1 w
b1000100 !
b1000100 1
b1000100 7
b1000100 L
b1000100 [
1$
#660000
0$
#665000
0c
b0 M
b0 e
0d
1B
b0 D
b0 g
b0 H
b0 b
b0 G
b0 a
bx ;
bx l
bx V
1&
05
0'
0(
b0 y
b10000000000101000001100010011 @
b10000000000101000001100010011 ^
b0 O
b0 U
b0 N
bx I
bx T
b111 w
1$
#670000
0$
#675000
b1001000 M
0B
b1001000 D
b1001000 g
b1001000 e
b1000100 G
b1000100 a
b100 H
b100 b
b0 ;
b0 l
b0 V
b1 6
b1 E
b1 R
b1 u
b10 3
b10 C
b10 v
14
1)
1/
1.
0&
b1 y
b0 I
b0 T
b0 w
1$
#680000
0$
#685000
b0 M
b0 e
bx =
bx n
1B
b0 D
b0 g
b0 H
b0 b
b101 i
b0 j
b110 k
b0 P
b1000 Q
b10011 +
b10011 t
b1001000 ;
b1001000 l
b10010 V
b0 G
b0 a
15
1'
1(
b0 6
b0 E
b0 R
b0 u
b0 3
b0 C
b0 v
04
0.
0/
0)
b110 y
b10000000000101000001100010011 "
b10000000000101000001100010011 2
b10000000000101000001100010011 8
b10000000000101000001100010011 J
b10000000000101000001100010011 q
b1001000 I
b1001000 T
b1001000 !
b1001000 1
b1001000 7
b1001000 L
b1001000 [
b1 w
1$
#690000
0$
#695000
xc
bx M
b100000000 H
b100000000 b
xd
xB
bx D
bx g
bx e
b100000000 :
b100000000 p
b100000000 s
b0 ;
b0 l
b0 V
bx G
bx a
b1 0
b1 A
b1 r
b1 x
b1 3
b1 C
b1 v
15
0'
0(
b111 y
b0 I
b0 T
bx N
b11000101000001110110011 @
b11000101000001110110011 ^
b110 w
1$
#700000
0$
#705000
xd
xB
bx D
bx g
b0 :
b0 p
b0 s
b0 H
b0 b
bx ;
bx l
bx V
1&
05
b0 0
b0 A
b0 r
b0 x
b0 3
b0 C
b0 v
b0 y
bx I
bx T
b111 w
1$
#710000
0$
