test/programs/cpu_waveforms.vcd
$date
	Sat Jun 28 09:59:21 2025
$end
$version
	Icarus Verilog
$end
$timescale
	1ps
$end
$scope module tb_sigmacore_top $end
$var wire 32 ! pc_out_tb [31:0] $end
$var wire 32 " instruction_out_tb [31:0] $end
$var parameter 32 # CLOCK_PERIOD $end
$var reg 1 $ clk_tb $end
$var reg 1 % reset_n_tb $end
$scope module dut $end
$var wire 1 $ clk $end
$var wire 1 % reset_n $end
$var wire 1 & reg_write $end
$var wire 1 ' reg_b_write $end
$var wire 1 ( reg_a_write $end
$var wire 1 ) pc_write $end
$var wire 2 * pc_source [1:0] $end
$var wire 7 + opcode_from_datapath [6:0] $end
$var wire 1 , mem_write $end
$var wire 1 - mem_to_reg $end
$var wire 1 . mem_read $end
$var wire 1 / ir_write $end
$var wire 3 0 imm_src [2:0] $end
$var wire 32 1 final_pc_out [31:0] $end
$var wire 32 2 final_instruction_out [31:0] $end
$var wire 2 3 alu_src_b [1:0] $end
$var wire 1 4 alu_src_a $end
$var wire 1 5 alu_out_write $end
$var wire 2 6 alu_op_type [1:0] $end
$scope module datapath $end
$var wire 1 $ clk $end
$var wire 32 7 current_pc_out [31:0] $end
$var wire 32 8 instruction_out [31:0] $end
$var wire 1 9 mem_read $end
$var wire 1 % reset_n $end
$var wire 32 : sign_extended_imm [31:0] $end
$var wire 32 ; reg_write_data [31:0] $end
$var wire 1 & reg_write $end
$var wire 32 < reg_file_read_data2 [31:0] $end
$var wire 32 = reg_file_read_data1 [31:0] $end
$var wire 1 ' reg_b_write $end
$var wire 1 ( reg_a_write $end
$var wire 1 ) pc_write $end
$var wire 2 > pc_source [1:0] $end
$var wire 1 , mem_write $end
$var wire 1 - mem_to_reg $end
$var wire 32 ? mem_read_data [31:0] $end
$var wire 1 / ir_write $end
$var wire 32 @ instruction_from_imem [31:0] $end
$var wire 3 A imm_src [2:0] $end
$var wire 7 B funct7 [6:0] $end
$var wire 3 C funct3 [2:0] $end
$var wire 1 D alu_zero_flag $end
$var wire 2 E alu_src_b [1:0] $end
$var wire 1 4 alu_src_a $end
$var wire 32 F alu_result [31:0] $end
$var wire 1 5 alu_out_write $end
$var wire 2 G alu_op_type [1:0] $end
$var wire 4 H alu_op [3:0] $end
$var wire 32 I alu_input_a [31:0] $end
$var reg 32 J alu_input_b [31:0] $end
$var reg 32 K alu_result_register [31:0] $end
$var reg 32 L instruction_register [31:0] $end
$var reg 32 M mem_data_register [31:0] $end
$var reg 32 N pc_current [31:0] $end
$var reg 32 O pc_next [31:0] $end
$var reg 32 P reg_a [31:0] $end
$var reg 32 Q reg_b [31:0] $end
$scope module alu_ctrl $end
$var wire 3 R funct3_in [2:0] $end
$var wire 7 S funct7_in [6:0] $end
$var wire 2 T alu_op_type_in [1:0] $end
$var reg 4 U alu_op_out [3:0] $end
$upscope $end
$scope module dmem $end
$var wire 32 V addr_in [31:0] $end
$var wire 1 $ clk $end
$var wire 32 W write_data_in [31:0] $end
$var wire 1 , write_enable $end
$var wire 10 X word_addr [9:0] $end
$var parameter 32 Y ADDR_WIDTH $end
$var parameter 32 Z MEM_SIZE_WORDS $end
$var reg 32 [ read_data_out [31:0] $end
$var reg 1 \ read_enable $end
$upscope $end
$scope module imem $end
$var wire 1 $ clk $end
$var wire 32 ] read_addr_in [31:0] $end
$var parameter 32 ^ ADDR_WIDTH $end
$var parameter 32 _ MEM_SIZE_WORDS $end
$var reg 32 ` instruction_out [31:0] $end
$scope begin $ivl_for_loop0 $end
$var integer 32 a i [31:0] $end
$upscope $end
$upscope $end
$scope module main_alu $end
$var wire 4 b alu_op [3:0] $end
$var wire 32 c operand1 [31:0] $end
$var wire 32 d operand2 [31:0] $end
$var wire 1 D zero_flag $end
$var wire 1 e negative_flag $end
$var reg 1 f carry_flag $end
$var reg 33 g ext_sum_sub [32:0] $end
$var reg 1 h overflow_flag $end
$var reg 32 i result [31:0] $end
$var reg 5 j shift_temp [4:0] $end
$upscope $end
$scope module reg_file $end
$var wire 1 $ clk $end
$var wire 5 k read_addr1 [4:0] $end
$var wire 5 l read_addr2 [4:0] $end
$var wire 1 % reset_n $end
$var wire 5 m write_addr [4:0] $end
$var wire 32 n write_data [31:0] $end
$var wire 1 & write_enable $end
$var wire 32 o read_data2 [31:0] $end
$var wire 32 p read_data1 [31:0] $end
$scope begin $ivl_for_loop1 $end
$var integer 32 q i [31:0] $end
$upscope $end
$upscope $end
$scope module sign_ext $end
$var wire 32 r imm_extended_out [31:0] $end
$var wire 32 s instruction_in [31:0] $end
$var wire 3 t imm_type_in [2:0] $end
$var reg 32 u imm_temp [31:0] $end
$upscope $end
$upscope $end
$scope module fsm_ctrl $end
$var wire 1 v alu_zero_flag $end
$var wire 1 $ clk $end
$var wire 3 w funct3 [2:0] $end
$var wire 7 x funct7 [6:0] $end
$var wire 7 y opcode [6:0] $end
$var wire 1 % reset_n $end
$var reg 2 z alu_op_type [1:0] $end
$var reg 1 5 alu_out_write $end
$var reg 1 4 alu_src_a $end
$var reg 2 { alu_src_b [1:0] $end
$var reg 4 | current_state [3:0] $end
$var reg 3 } imm_src [2:0] $end
$var reg 1 / ir_write $end
$var reg 1 . mem_read $end
$var reg 1 - mem_to_reg $end
$var reg 1 , mem_write $end
$var reg 4 ~ next_state [3:0] $end
$var reg 2 !" pc_source [1:0] $end
$var reg 1 ) pc_write $end
$var reg 1 ( reg_a_write $end
$var reg 1 ' reg_b_write $end
$var reg 1 & reg_write $end
$upscope $end
$upscope $end
$upscope $end
$enddefinitions $end
$comment Show the parameter values. $end
$dumpall
b10000 _
b100 ^
b10000000000 Z
b1010 Y
b1010 #
$end
#0
$dumpvars
b0 !"
b1 ~
b0 }
b0 |
b10 {
b1 z
bx y
bz x
bz w
zv
b0 u
b0 t
bx s
b0 r
b0 q
bx p
bx o
bx n
bx m
bx l
bx k
bx j
b100 i
0h
b100 g
0f
0e
b100 d
b0 c
b0 b
b10000 a
bx `
b0 ]
x\
bx [
bx X
bx W
bx V
b0 U
b1 T
bx S
bx R
bx Q
bx P
b100 O
b0 N
bx M
bx L
bx K
b100 J
b0 I
b0 H
b1 G
b100 F
b10 E
0D
bx C
bx B
b0 A
bx @
bx ?
b0 >
bx =
bx <
bx ;
b0 :
x9
bx 8
b0 7
b1 6
05
14
b10 3
bx 2
b0 1
b0 0
1/
1.
0-
0,
bx +
b0 *
1)
0(
0'
0&
0%
0$
bx "
b0 !
$end
#5000
b11001010111111101111001010110111 @
b11001010111111101111001010110111 `
b100000 q
1$
#10000
0$
#15000
b0 =
b0 p
b0 <
b0 o
b1 ~
b111 C
b111 R
b1100101 B
b1100101 S
b11101 k
b1111 l
b101 m
b110111 +
b110111 y
b11001010111111101111001010110111 "
b11001010111111101111001010110111 2
b11001010111111101111001010110111 8
b11001010111111101111001010110111 L
b11001010111111101111001010110111 s
b100000 q
1$
#20000
0$
#25000
b100000 q
1$
#30000
0$
#35000
b100000 q
1$
#40000
0$
#45000
b100000 q
1%
1$
#50000
0$
#55000
xe
xf
bx O
bx J
bx d
bx g
xD
bx F
bx i
15
1'
1(
b0 6
b0 G
b0 T
b0 z
b0 3
b0 E
b0 {
04
0.
0/
0)
b111 ~
bx I
bx c
b1 |
b100 !
b100 1
b100 7
b100 N
b100 ]
1$
#60000
0$
#65000
0e
b0 O
b0 g
0f
1D
b0 F
b0 i
b0 J
b0 d
b0 I
b0 c
1&
05
0'
0(
b0 ~
b10000000000101000001010010011 @
b10000000000101000001010010011 `
b0 Q
b0 W
b0 P
b111 |
1$
#70000
0$
#75000
b1000 O
0D
b1000 F
b1000 i
b1000 g
b100 I
b100 c
b100 J
b100 d
b1 6
b1 G
b1 T
b1 z
b10 3
b10 E
b10 {
14
1)
1/
1.
0&
b1 ~
b0 |
1$
#80000
0$
#85000
b0 O
b0 g
bx =
bx p
1D
b0 F
b0 i
b0 J
b0 d
b0 C
b0 R
b1000 B
b1000 S
b101 k
b0 l
b10011 +
b10011 y
b0 I
b0 c
15
1'
1(
b0 6
b0 G
b0 T
b0 z
b0 3
b0 E
b0 {
04
0.
0/
0)
b110 ~
b10000000000101000001010010011 "
b10000000000101000001010010011 2
b10000000000101000001010010011 8
b10000000000101000001010010011 L
b10000000000101000001010010011 s
b1000 !
b1000 1
b1000 7
b1000 N
b1000 ]
b1 |
1$
#90000
0$
#95000
xe
bx O
xf
xD
bx F
bx i
bx g
b0 ;
b0 n
b0 X
bx I
bx c
bx 0
bx A
bx t
bx }
b1 3
b1 E
b1 {
15
0'
0(
b111 ~
b0 K
b0 V
bx P
b11000101000001010110011 @
b11000101000001010110011 `
b110 |
1$
#100000
0$
#105000
bx ;
bx n
bx X
1&
05
b0 0
b0 A
b0 t
b0 }
b0 3
b0 E
b0 {
b0 ~
bx K
bx V
b111 |
1$
#110000
0$
#115000
0e
b1100 O
b1100 g
0f
0D
b1100 F
b1100 i
b1000 I
b1000 c
b100 J
b100 d
b1 6
b1 G
b1 T
b1 z
b10 3
b10 E
b10 {
14
1)
1/
1.
0&
b1 ~
b0 |
1$
#120000
0$
#125000
xe
bx O
xf
bx g
xD
bx F
bx i
b0 J
b0 d
b0 B
b0 S
b110 l
b110011 +
b110011 y
bx I
bx c
15
1'
1(
b0 6
b0 G
b0 T
b0 z
b0 3
b0 E
b0 {
04
0.
0/
0)
b0 ~
b11000101000001010110011 "
b11000101000001010110011 2
b11000101000001010110011 8
b11000101000001010110011 L
b11000101000001010110011 s
b1100 !
b1100 1
b1100 7
b1100 N
b1100 ]
b1 |
1$
#130000
0$
#135000
0e
b10000 O
b10000 g
0f
0D
b10000 F
b10000 i
b1100 I
b1100 c
b100 J
b100 d
b1 6
b1 G
b1 T
b1 z
b10 3
b10 E
b10 {
14
1)
1/
1.
05
0'
0(
b1 ~
b1000000011000101000001010110011 @
b1000000011000101000001010110011 `
b0 |
1$
#140000
0$
#145000
xe
bx O
xf
bx g
xD
bx F
bx i
b0 J
b0 d
b100000 B
b100000 S
bx I
bx c
15
1'
1(
b0 6
b0 G
b0 T
b0 z
b0 3
b0 E
b0 {
04
0.
0/
0)
b0 ~
b1000000011000101000001010110011 "
b1000000011000101000001010110011 2
b1000000011000101000001010110011 8
b1000000011000101000001010110011 L
b1000000011000101000001010110011 s
b10000 !
b10000 1
b10000 7
b10000 N
b10000 ]
b1 |
1$
#150000
0$
#155000
0e
b10100 O
b10100 g
0f
0D
b10100 F
b10100 i
b10000 I
b10000 c
b100 J
b100 d
b1 6
b1 G
b1 T
b1 z
b10 3
b10 E
b10 {
14
1)
1/
1.
05
0'
0(
b1 ~
b11001010111111101111001010110111 @
b11001010111111101111001010110111 `
b0 |
1$
#160000
0$
#165000
xe
bx O
xf
bx g
b0 =
b0 p
xD
bx F
bx i
b0 J
b0 d
b111 C
b111 R
b1100101 B
b1100101 S
b11101 k
b1111 l
b110111 +
b110111 y
bx I
bx c
15
1'
1(
b0 6
b0 G
b0 T
b0 z
b0 3
b0 E
b0 {
04
0.
0/
0)
b111 ~
b11001010111111101111001010110111 "
b11001010111111101111001010110111 2
b11001010111111101111001010110111 8
b11001010111111101111001010110111 L
b11001010111111101111001010110111 s
b10100 !
b10100 1
b10100 7
b10100 N
b10100 ]
b1 |
1$
#170000
0$
#175000
0e
b0 O
b0 g
0f
1D
b0 F
b0 i
b0 I
b0 c
1&
05
0'
0(
b0 ~
b0 P
b10000000000101000001010010011 @
b10000000000101000001010010011 `
b111 |
1$
#180000
0$
#185000
b11000 O
0D
b11000 F
b11000 i
b11000 g
b10100 I
b10100 c
b100 J
b100 d
b1 6
b1 G
b1 T
b1 z
b10 3
b10 E
b10 {
14
1)
1/
1.
0&
b1 ~
b0 |
1$
#190000
0$
#195000
b0 O
bx =
bx p
b0 J
b0 d
b0 g
1D
b0 F
b0 i
b0 C
b0 R
b1000 B
b1000 S
b101 k
b0 l
b10011 +
b10011 y
15
1'
1(
b0 6
b0 G
b0 T
b0 z
b0 3
b0 E
b0 {
04
0.
0/
0)
b110 ~
b0 I
b0 c
b10000000000101000001010010011 "
b10000000000101000001010010011 2
b10000000000101000001010010011 8
b10000000000101000001010010011 L
b10000000000101000001010010011 s
b1 |
b11000 !
b11000 1
b11000 7
b11000 N
b11000 ]
1$
#200000
0$
#205000
xe
bx O
xf
xD
bx F
bx i
bx g
bx I
bx c
b0 ;
b0 n
b0 X
bx 0
bx A
bx t
bx }
b1 3
b1 E
b1 {
15
0'
0(
b111 ~
b11000101000001010110011 @
b11000101000001010110011 `
bx P
b0 K
b0 V
b110 |
1$
#210000
0$
#215000
bx ;
bx n
bx X
1&
05
b0 0
b0 A
b0 t
b0 }
b0 3
b0 E
b0 {
b0 ~
bx K
bx V
b111 |
1$
#220000
0$
#225000
0e
b11100 O
b11100 g
0f
0D
b11100 F
b11100 i
b11000 I
b11000 c
b100 J
b100 d
b1 6
b1 G
b1 T
b1 z
b10 3
b10 E
b10 {
14
1)
1/
1.
0&
b1 ~
b0 |
1$
#230000
0$
#235000
xe
xf
bx O
b0 J
b0 d
bx g
xD
bx F
bx i
b0 B
b0 S
b110 l
b110011 +
b110011 y
15
1'
1(
b0 6
b0 G
b0 T
b0 z
b0 3
b0 E
b0 {
04
0.
0/
0)
b0 ~
bx I
bx c
b11000101000001010110011 "
b11000101000001010110011 2
b11000101000001010110011 8
b11000101000001010110011 L
b11000101000001010110011 s
b1 |
b11100 !
b11100 1
b11100 7
b11100 N
b11100 ]
1$
#240000
0$
#245000
0e
b100000 O
b100000 g
0f
0D
b100000 F
b100000 i
b11100 I
b11100 c
b100 J
b100 d
b1 6
b1 G
b1 T
b1 z
b10 3
b10 E
b10 {
14
1)
1/
1.
05
0'
0(
b1 ~
b1000000011000101000001010110011 @
b1000000011000101000001010110011 `
b0 |
1$
#250000
0$
#255000
xe
xf
bx O
b0 J
b0 d
bx g
xD
bx F
bx i
b100000 B
b100000 S
15
1'
1(
b0 6
b0 G
b0 T
b0 z
b0 3
b0 E
b0 {
04
0.
0/
0)
b0 ~
bx I
bx c
b1000000011000101000001010110011 "
b1000000011000101000001010110011 2
b1000000011000101000001010110011 8
b1000000011000101000001010110011 L
b1000000011000101000001010110011 s
b1 |
b100000 !
b100000 1
b100000 7
b100000 N
b100000 ]
1$
#260000
0$
#265000
0e
b100100 O
b100100 g
0f
0D
b100100 F
b100100 i
b100000 I
b100000 c
b100 J
b100 d
b1 6
b1 G
b1 T
b1 z
b10 3
b10 E
b10 {
14
1)
1/
1.
05
0'
0(
b1 ~
b11001010111111101111001010110111 @
b11001010111111101111001010110111 `
b0 |
1$
#270000
0$
#275000
xe
xf
bx O
b0 =
b0 p
b0 J
b0 d
bx g
xD
bx F
bx i
b111 C
b111 R
b1100101 B
b1100101 S
b11101 k
b1111 l
b110111 +
b110111 y
15
1'
1(
b0 6
b0 G
b0 T
b0 z
b0 3
b0 E
b0 {
04
0.
0/
0)
b111 ~
bx I
bx c
b11001010111111101111001010110111 "
b11001010111111101111001010110111 2
b11001010111111101111001010110111 8
b11001010111111101111001010110111 L
b11001010111111101111001010110111 s
b1 |
b100100 !
b100100 1
b100100 7
b100100 N
b100100 ]
1$
#280000
0$
#285000
0e
b0 O
b0 g
0f
1D
b0 F
b0 i
b0 I
b0 c
1&
05
0'
0(
b0 ~
b10000000000101000001010010011 @
b10000000000101000001010010011 `
b0 P
b111 |
1$
#290000
0$
#295000
b101000 O
0D
b101000 F
b101000 i
b101000 g
b100100 I
b100100 c
b100 J
b100 d
b1 6
b1 G
b1 T
b1 z
b10 3
b10 E
b10 {
14
1)
1/
1.
0&
b1 ~
b0 |
1$
#300000
0$
#305000
b0 O
b0 g
bx =
bx p
1D
b0 F
b0 i
b0 J
b0 d
b0 C
b0 R
b1000 B
b1000 S
b101 k
b0 l
b10011 +
b10011 y
b0 I
b0 c
15
1'
1(
b0 6
b0 G
b0 T
b0 z
b0 3
b0 E
b0 {
04
0.
0/
0)
b110 ~
b10000000000101000001010010011 "
b10000000000101000001010010011 2
b10000000000101000001010010011 8
b10000000000101000001010010011 L
b10000000000101000001010010011 s
b101000 !
b101000 1
b101000 7
b101000 N
b101000 ]
b1 |
1$
#310000
0$
#315000
xe
bx O
xf
xD
bx F
bx i
bx g
b0 ;
b0 n
b0 X
bx I
bx c
bx 0
bx A
bx t
bx }
b1 3
b1 E
b1 {
15
0'
0(
b111 ~
b0 K
b0 V
bx P
b11000101000001010110011 @
b11000101000001010110011 `
b110 |
1$
#320000
0$
#325000
bx ;
bx n
bx X
1&
05
b0 0
b0 A
b0 t
b0 }
b0 3
b0 E
b0 {
b0 ~
bx K
bx V
b111 |
1$
#330000
0$
#335000
0e
b101100 O
b101100 g
0f
0D
b101100 F
b101100 i
b101000 I
b101000 c
b100 J
b100 d
b1 6
b1 G
b1 T
b1 z
b10 3
b10 E
b10 {
14
1)
1/
1.
0&
b1 ~
b0 |
1$
#340000
0$
#345000
xe
bx O
xf
bx g
xD
bx F
bx i
b0 J
b0 d
b0 B
b0 S
b110 l
b110011 +
b110011 y
bx I
bx c
15
1'
1(
b0 6
b0 G
b0 T
b0 z
b0 3
b0 E
b0 {
04
0.
0/
0)
b0 ~
b11000101000001010110011 "
b11000101000001010110011 2
b11000101000001010110011 8
b11000101000001010110011 L
b11000101000001010110011 s
b101100 !
b101100 1
b101100 7
b101100 N
b101100 ]
b1 |
1$
#350000
0$
#355000
0e
b110000 O
b110000 g
0f
0D
b110000 F
b110000 i
b101100 I
b101100 c
b100 J
b100 d
b1 6
b1 G
b1 T
b1 z
b10 3
b10 E
b10 {
14
1)
1/
1.
05
0'
0(
b1 ~
b1000000011000101000001010110011 @
b1000000011000101000001010110011 `
b0 |
1$
#360000
0$
#365000
xe
bx O
xf
bx g
xD
bx F
bx i
b0 J
b0 d
b100000 B
b100000 S
bx I
bx c
15
1'
1(
b0 6
b0 G
b0 T
b0 z
b0 3
b0 E
b0 {
04
0.
0/
0)
b0 ~
b1000000011000101000001010110011 "
b1000000011000101000001010110011 2
b1000000011000101000001010110011 8
b1000000011000101000001010110011 L
b1000000011000101000001010110011 s
b110000 !
b110000 1
b110000 7
b110000 N
b110000 ]
b1 |
1$
#370000
0$
#375000
0e
b110100 O
b110100 g
0f
0D
b110100 F
b110100 i
b110000 I
b110000 c
b100 J
b100 d
b1 6
b1 G
b1 T
b1 z
b10 3
b10 E
b10 {
14
1)
1/
1.
05
0'
0(
b1 ~
b11001010111111101111001010110111 @
b11001010111111101111001010110111 `
b0 |
1$
#380000
0$
#385000
xe
bx O
xf
bx g
b0 =
b0 p
xD
bx F
bx i
b0 J
b0 d
b111 C
b111 R
b1100101 B
b1100101 S
b11101 k
b1111 l
b110111 +
b110111 y
bx I
bx c
15
1'
1(
b0 6
b0 G
b0 T
b0 z
b0 3
b0 E
b0 {
04
0.
0/
0)
b111 ~
b11001010111111101111001010110111 "
b11001010111111101111001010110111 2
b11001010111111101111001010110111 8
b11001010111111101111001010110111 L
b11001010111111101111001010110111 s
b110100 !
b110100 1
b110100 7
b110100 N
b110100 ]
b1 |
1$
#390000
0$
#395000
0e
b0 O
b0 g
0f
1D
b0 F
b0 i
b0 I
b0 c
1&
05
0'
0(
b0 ~
b0 P
b10000000000101000001010010011 @
b10000000000101000001010010011 `
b111 |
1$
#400000
0$
#405000
b111000 O
0D
b111000 F
b111000 i
b111000 g
b110100 I
b110100 c
b100 J
b100 d
b1 6
b1 G
b1 T
b1 z
b10 3
b10 E
b10 {
14
1)
1/
1.
0&
b1 ~
b0 |
1$
#410000
0$
#415000
b0 O
bx =
bx p
b0 J
b0 d
b0 g
1D
b0 F
b0 i
b0 C
b0 R
b1000 B
b1000 S
b101 k
b0 l
b10011 +
b10011 y
15
1'
1(
b0 6
b0 G
b0 T
b0 z
b0 3
b0 E
b0 {
04
0.
0/
0)
b110 ~
b0 I
b0 c
b10000000000101000001010010011 "
b10000000000101000001010010011 2
b10000000000101000001010010011 8
b10000000000101000001010010011 L
b10000000000101000001010010011 s
b1 |
b111000 !
b111000 1
b111000 7
b111000 N
b111000 ]
1$
#420000
0$
#425000
xe
bx O
xf
xD
bx F
bx i
bx g
bx I
bx c
b0 ;
b0 n
b0 X
bx 0
bx A
bx t
bx }
b1 3
b1 E
b1 {
15
0'
0(
b111 ~
b11000101000001010110011 @
b11000101000001010110011 `
bx P
b0 K
b0 V
b110 |
1$
#430000
0$
#435000
bx ;
bx n
bx X
1&
05
b0 0
b0 A
b0 t
b0 }
b0 3
b0 E
b0 {
b0 ~
bx K
bx V
b111 |
1$
#440000
0$
#445000
0e
b111100 O
b111100 g
0f
0D
b111100 F
b111100 i
b111000 I
b111000 c
b100 J
b100 d
b1 6
b1 G
b1 T
b1 z
b10 3
b10 E
b10 {
14
1)
1/
1.
0&
b1 ~
b0 |
1$
#450000
0$
#455000
xe
xf
bx O
b0 J
b0 d
bx g
xD
bx F
bx i
b0 B
b0 S
b110 l
b110011 +
b110011 y
15
1'
1(
b0 6
b0 G
b0 T
b0 z
b0 3
b0 E
b0 {
04
0.
0/
0)
b0 ~
bx I
bx c
b11000101000001010110011 "
b11000101000001010110011 2
b11000101000001010110011 8
b11000101000001010110011 L
b11000101000001010110011 s
b1 |
b111100 !
b111100 1
b111100 7
b111100 N
b111100 ]
1$
#460000
0$
#465000
0e
b1000000 O
b1000000 g
0f
0D
b1000000 F
b1000000 i
b111100 I
b111100 c
b100 J
b100 d
b1 6
b1 G
b1 T
b1 z
b10 3
b10 E
b10 {
14
1)
1/
1.
05
0'
0(
b1 ~
b1000000011000101000001010110011 @
b1000000011000101000001010110011 `
b0 |
1$
#470000
0$
#475000
xe
xf
bx O
b0 J
b0 d
bx g
xD
bx F
bx i
b100000 B
b100000 S
15
1'
1(
b0 6
b0 G
b0 T
b0 z
b0 3
b0 E
b0 {
04
0.
0/
0)
b0 ~
bx I
bx c
b1000000011000101000001010110011 "
b1000000011000101000001010110011 2
b1000000011000101000001010110011 8
b1000000011000101000001010110011 L
b1000000011000101000001010110011 s
b1 |
b1000000 !
b1000000 1
b1000000 7
b1000000 N
b1000000 ]
1$
#480000
0$
#485000
0e
b1000100 O
b1000100 g
0f
0D
b1000100 F
b1000100 i
b1000000 I
b1000000 c
b100 J
b100 d
b1 6
b1 G
b1 T
b1 z
b10 3
b10 E
b10 {
14
1)
1/
1.
05
0'
0(
b1 ~
b11001010111111101111001010110111 @
b11001010111111101111001010110111 `
b0 |
1$
#490000
0$
#495000
xe
xf
bx O
b0 =
b0 p
b0 J
b0 d
bx g
xD
bx F
bx i
b111 C
b111 R
b1100101 B
b1100101 S
b11101 k
b1111 l
b110111 +
b110111 y
15
1'
1(
b0 6
b0 G
b0 T
b0 z
b0 3
b0 E
b0 {
04
0.
0/
0)
b111 ~
bx I
bx c
b11001010111111101111001010110111 "
b11001010111111101111001010110111 2
b11001010111111101111001010110111 8
b11001010111111101111001010110111 L
b11001010111111101111001010110111 s
b1 |
b1000100 !
b1000100 1
b1000100 7
b1000100 N
b1000100 ]
1$
#500000
0$
#505000
0e
b0 O
b0 g
0f
1D
b0 F
b0 i
b0 I
b0 c
1&
05
0'
0(
b0 ~
b10000000000101000001010010011 @
b10000000000101000001010010011 `
b0 P
b111 |
1$
#510000
0$
#515000
b1001000 O
0D
b1001000 F
b1001000 i
b1001000 g
b1000100 I
b1000100 c
b100 J
b100 d
b1 6
b1 G
b1 T
b1 z
b10 3
b10 E
b10 {
14
1)
1/
1.
0&
b1 ~
b0 |
1$
#520000
0$
#525000
b0 O
b0 g
bx =
bx p
1D
b0 F
b0 i
b0 J
b0 d
b0 C
b0 R
b1000 B
b1000 S
b101 k
b0 l
b10011 +
b10011 y
b0 I
b0 c
15
1'
1(
b0 6
b0 G
b0 T
b0 z
b0 3
b0 E
b0 {
04
0.
0/
0)
b110 ~
b10000000000101000001010010011 "
b10000000000101000001010010011 2
b10000000000101000001010010011 8
b10000000000101000001010010011 L
b10000000000101000001010010011 s
b1001000 !
b1001000 1
b1001000 7
b1001000 N
b1001000 ]
b1 |
1$
#530000
0$
#535000
xe
bx O
xf
xD
bx F
bx i
bx g
b0 ;
b0 n
b0 X
bx I
bx c
bx 0
bx A
bx t
bx }
b1 3
b1 E
b1 {
15
0'
0(
b111 ~
b0 K
b0 V
bx P
b11000101000001010110011 @
b11000101000001010110011 `
b110 |
1$
#540000
0$
#545000
bx ;
bx n
bx X
1&
05
b0 0
b0 A
b0 t
b0 }
b0 3
b0 E
b0 {
b0 ~
bx K
bx V
b111 |
1$
#550000
0$
#555000
0e
b1001100 O
b1001100 g
0f
0D
b1001100 F
b1001100 i
b1001000 I
b1001000 c
b100 J
b100 d
b1 6
b1 G
b1 T
b1 z
b10 3
b10 E
b10 {
14
1)
1/
1.
0&
b1 ~
b0 |
1$
#560000
0$
#565000
xe
bx O
xf
bx g
xD
bx F
bx i
b0 J
b0 d
b0 B
b0 S
b110 l
b110011 +
b110011 y
bx I
bx c
15
1'
1(
b0 6
b0 G
b0 T
b0 z
b0 3
b0 E
b0 {
04
0.
0/
0)
b0 ~
b11000101000001010110011 "
b11000101000001010110011 2
b11000101000001010110011 8
b11000101000001010110011 L
b11000101000001010110011 s
b1001100 !
b1001100 1
b1001100 7
b1001100 N
b1001100 ]
b1 |
1$
#570000
0$
#575000
0e
b1010000 O
b1010000 g
0f
0D
b1010000 F
b1010000 i
b1001100 I
b1001100 c
b100 J
b100 d
b1 6
b1 G
b1 T
b1 z
b10 3
b10 E
b10 {
14
1)
1/
1.
05
0'
0(
b1 ~
b1000000011000101000001010110011 @
b1000000011000101000001010110011 `
b0 |
1$
#580000
0$
#585000
xe
bx O
xf
bx g
xD
bx F
bx i
b0 J
b0 d
b100000 B
b100000 S
bx I
bx c
15
1'
1(
b0 6
b0 G
b0 T
b0 z
b0 3
b0 E
b0 {
04
0.
0/
0)
b0 ~
b1000000011000101000001010110011 "
b1000000011000101000001010110011 2
b1000000011000101000001010110011 8
b1000000011000101000001010110011 L
b1000000011000101000001010110011 s
b1010000 !
b1010000 1
b1010000 7
b1010000 N
b1010000 ]
b1 |
1$
#590000
0$
#595000
0e
b1010100 O
b1010100 g
0f
0D
b1010100 F
b1010100 i
b1010000 I
b1010000 c
b100 J
b100 d
b1 6
b1 G
b1 T
b1 z
b10 3
b10 E
b10 {
14
1)
1/
1.
05
0'
0(
b1 ~
b11001010111111101111001010110111 @
b11001010111111101111001010110111 `
b0 |
1$
#600000
0$
#605000
xe
bx O
xf
bx g
b0 =
b0 p
xD
bx F
bx i
b0 J
b0 d
b111 C
b111 R
b1100101 B
b1100101 S
b11101 k
b1111 l
b110111 +
b110111 y
bx I
bx c
15
1'
1(
b0 6
b0 G
b0 T
b0 z
b0 3
b0 E
b0 {
04
0.
0/
0)
b111 ~
b11001010111111101111001010110111 "
b11001010111111101111001010110111 2
b11001010111111101111001010110111 8
b11001010111111101111001010110111 L
b11001010111111101111001010110111 s
b1010100 !
b1010100 1
b1010100 7
b1010100 N
b1010100 ]
b1 |
1$
#610000
0$
#615000
0e
b0 O
b0 g
0f
1D
b0 F
b0 i
b0 I
b0 c
1&
05
0'
0(
b0 ~
b0 P
b10000000000101000001010010011 @
b10000000000101000001010010011 `
b111 |
1$
#620000
0$
#625000
b1011000 O
0D
b1011000 F
b1011000 i
b1011000 g
b1010100 I
b1010100 c
b100 J
b100 d
b1 6
b1 G
b1 T
b1 z
b10 3
b10 E
b10 {
14
1)
1/
1.
0&
b1 ~
b0 |
1$
#630000
0$
#635000
b0 O
bx =
bx p
b0 J
b0 d
b0 g
1D
b0 F
b0 i
b0 C
b0 R
b1000 B
b1000 S
b101 k
b0 l
b10011 +
b10011 y
15
1'
1(
b0 6
b0 G
b0 T
b0 z
b0 3
b0 E
b0 {
04
0.
0/
0)
b110 ~
b0 I
b0 c
b10000000000101000001010010011 "
b10000000000101000001010010011 2
b10000000000101000001010010011 8
b10000000000101000001010010011 L
b10000000000101000001010010011 s
b1 |
b1011000 !
b1011000 1
b1011000 7
b1011000 N
b1011000 ]
1$
#640000
0$
#645000
xe
bx O
xf
xD
bx F
bx i
bx g
bx I
bx c
b0 ;
b0 n
b0 X
bx 0
bx A
bx t
bx }
b1 3
b1 E
b1 {
15
0'
0(
b111 ~
b11000101000001010110011 @
b11000101000001010110011 `
bx P
b0 K
b0 V
b110 |
1$
#650000
0$
#655000
bx ;
bx n
bx X
1&
05
b0 0
b0 A
b0 t
b0 }
b0 3
b0 E
b0 {
b0 ~
bx K
bx V
b111 |
1$
#660000
0$
#665000
0e
b1011100 O
b1011100 g
0f
0D
b1011100 F
b1011100 i
b1011000 I
b1011000 c
b100 J
b100 d
b1 6
b1 G
b1 T
b1 z
b10 3
b10 E
b10 {
14
1)
1/
1.
0&
b1 ~
b0 |
1$
#670000
0$
#675000
xe
xf
bx O
b0 J
b0 d
bx g
xD
bx F
bx i
b0 B
b0 S
b110 l
b110011 +
b110011 y
15
1'
1(
b0 6
b0 G
b0 T
b0 z
b0 3
b0 E
b0 {
04
0.
0/
0)
b0 ~
bx I
bx c
b11000101000001010110011 "
b11000101000001010110011 2
b11000101000001010110011 8
b11000101000001010110011 L
b11000101000001010110011 s
b1 |
b1011100 !
b1011100 1
b1011100 7
b1011100 N
b1011100 ]
1$
#680000
0$
#685000
0e
b1100000 O
b1100000 g
0f
0D
b1100000 F
b1100000 i
b1011100 I
b1011100 c
b100 J
b100 d
b1 6
b1 G
b1 T
b1 z
b10 3
b10 E
b10 {
14
1)
1/
1.
05
0'
0(
b1 ~
b1000000011000101000001010110011 @
b1000000011000101000001010110011 `
b0 |
1$
#690000
0$
